{
    "intents":[{"tag": "greeting_en",
        "patterns": ["Hi there", "How are you", "Is anyone there?","Hey","Hola", "Hello", "Good day","I’m fine. Thank you. How about you?"],
        "responses": ["Hello", "Hello, thanks for asking", "Good to see you again", "Hi there, how can I help?"," Good morning sir. How may I help you?"," Good morning. How’re you doing today?","I’m good. So what brings you here?"],
        "context": [""]
       },
       {"tag": "goodbye_en",
        "patterns": ["Bye", "See you later", "Goodbye", "Nice chatting to you, bye", "Till next time"],
        "responses": ["See you!", "Have a nice day", "Bye! Come back again soon."],
        "context": [""]
       },
       {"tag": "thanks_en",
        "patterns": ["Thanks", "Thank you", "That's helpful", "Awesome, thanks", "Thanks for helping me"," Thank you, doctor"],
        "responses": ["Happy to help!", "Any time!", "My pleasure","you'er welcome"],
        "context": [""]
       },
       {"tag": "noanswer_en",
        "patterns": [],
        "responses": ["Sorry, can't understand you", "Please give me more info", "Not sure I understand"],
        "context": [""]
       },
       {"tag": "options_en",
        "patterns": ["How you could help me?", "What you can do?", "What help you provide?", "How you can be helpful?", "What support is offered","I’ve come for a regular checkup for a suspected case of glaucoma. I don’t have it, but few years back a doctor after examining my eye and knowing my family eye history advised me to undergo precautionary checkup once a year","Yes, it was. And because I’ve taken these tests in the past too, I knew what was coming","ok","Yes. I see few thin, black, wavy structures floating in front of my eyes and they don’t disappear even when I close my eyes. What are they? Are they harmful?","Thank you doctor. Thanks for your time"],
        "responses": ["I can guide you through Adverse drug reaction list, Blood pressure tracking, Hospitals and Pharmacies", "Offering support for Adverse drug reaction, Blood pressure, Hospitals and Pharmacies","I see that your optic nerve is thicker than the normal. That’s probably the reason why you were asked to undergo precautionary tests every year. You can have the same two tests – visual field analysis and OCT – today and once you’ve the two reports, we can meet again in the afternoon.","I hope you had a smooth experience going through those tests","Your reports are absolutely fine. Since these reports haven’t shown anything suspect in so many years, I think you can now take these tests once in two years, and not once a year.","In case your eyes get tired quickly, I would recommend xxx. It’s an eye drop, which you can use 2-3 times in the day. Our eyes get dry when we look at the computer screen without blinking for long, a common reason for tiredness in eyes. This eye drop will lubricate your eyes.","Do you’ve any other questions?","They’re called floaters, and most persons develop them to different extent as they age. They’re not harmful"],
        "context": [""]
       },
       {"tag": "adverse_drug_en",
        "patterns": ["How to check Adverse drug reaction?", "Open adverse drugs module", "Give me a list of drugs causing adverse behavior", "List all drugs suitable for patient with adverse reaction", "Which drugs dont have adverse reaction?" ],
        "responses": ["Navigating to Adverse drug reaction module"],
        "context": [""]
       },
       {"tag": "blood_pressure_en",
        "patterns": ["Open blood pressure module", "Task related to blood pressure", "Blood pressure data entry", "I want to log blood pressure results", "Blood pressure data management" ],
        "responses": ["Navigating to Blood Pressure module"],
        "context": [""]
       },
       {"tag": "blood_pressure_search_en",
        "patterns": ["I want to search for blood pressure result history", "Blood pressure for patient", "Load patient blood pressure result", "Show blood pressure results for patient", "Find blood pressure results by ID" ],
        "responses": ["Please provide Patient ID", "Patient ID?"],
        "context": ["search_blood_pressure_by_patient_id"]
       },
       {"tag": "pharmacy_search_en",
        "patterns": ["Find me a pharmacy", "Find pharmacy", "List of pharmacies nearby", "Locate pharmacy", "Search pharmacy" ],
        "responses": ["Please provide pharmacy name"],
        "context": ["search_pharmacy_by_name"]
       },
       {"tag": "hospital_search_en",
        "patterns": ["Lookup for hospital", "Searching for hospital to transfer patient", "I want to search hospital data", "Hospital lookup for patient", "Looking up hospital details" ],
        "responses": ["Please provide hospital name or location"],
        "context": ["search_hospital_by_params"]
       },
      
     {
           "tag":"COVID_19_en",
           "patterns":["Are covid vaccines safe?","Should we be concerned about variants and why?","Tell us about the progress in finding better ways to treat people with COVID-19. Are we seeing higher survival rates and quicker recovery? ","What I am hearing is that we should not give up our personal safety mitigations like masking, physical distancing, and hand sanitization in public spaces. What should we do to protect ourselves in our social lives?"],
           "responses":["Yes, absolutely","These vaccines are remarkably effective and safe. Right now, we have three vaccines out there. There's the two dose versions. These are the what are known as the Pfizer vaccine, and the other one is the Moderna vaccine. Those are the ones that came out first that were followed by the one dose version, Johnson & Johnson. All three are effective and have been given to millions of people","yes","Yes, we should be concerned. Vaccines are the ultimate solution to this pandemic as the tool that will get us to the new normal to decrease COVID-19 transmission."," Last spring we saw a lot of people with COVID-19 that were very ill, and unfortunately many who died. That was true through the spring, summer, and winter surges.","Let’s acknowledge that we are humans. We want to be with other people. It has been a hard and horrible year for many people and many communities."],
            "context":"convid_vacines"
       },
       {
        "tag":"meal_en",
        "patterns":["what to eat at night?"],
        "responses":["Eating a protein-rich snack before bed could support muscle repair and help slow down age-related muscle loss, particularly if you exercise routinely"],
         "context":"convid_vacines"
    },

    {
      "tag":"headahce_en",
      "patterns":["i got hit in my head"],
      "responses":["Stop any bleeding by firmly pressing a clean cloth on the wound. If the injury is serious, be careful not to move the person's head"],
       "context":"convid_vacines"
  }
    
       
       
  ]
}